%YAML 1.1
%TAG !u! tag:unity3d.com,2011:
--- !u!1 &188254
GameObject:
  m_ObjectHideFlags: 0
  m_PrefabParentObject: {fileID: 0}
  m_PrefabInternal: {fileID: 100100000}
  serializedVersion: 4
  m_Component:
  - 4: {fileID: 442302}
  - 212: {fileID: 21288144}
  - 114: {fileID: 11445954}
  - 68: {fileID: 6827826}
  - 68: {fileID: 6816006}
  - 68: {fileID: 6889770}
  - 68: {fileID: 6845132}
  m_Layer: 9
  m_Name: CollidableGround
  m_TagString: Untagged
  m_Icon: {fileID: 0}
  m_NavMeshLayer: 0
  m_StaticEditorFlags: 0
  m_IsActive: 1
--- !u!4 &442302
Transform:
  m_ObjectHideFlags: 1
  m_PrefabParentObject: {fileID: 0}
  m_PrefabInternal: {fileID: 100100000}
  m_GameObject: {fileID: 188254}
  m_LocalRotation: {x: 0, y: 0, z: 0, w: 1}
  m_LocalPosition: {x: -4.69914722, y: .87863636, z: 0}
  m_LocalScale: {x: 1, y: 1, z: 1}
  m_Children: []
  m_Father: {fileID: 0}
  m_RootOrder: 0
--- !u!68 &6816006
EdgeCollider2D:
  m_ObjectHideFlags: 1
  m_PrefabParentObject: {fileID: 0}
  m_PrefabInternal: {fileID: 100100000}
  m_GameObject: {fileID: 188254}
  m_Enabled: 1
  m_Material: {fileID: 6200000, guid: aaa78883fb506424ea26248d5da79514, type: 2}
  m_IsTrigger: 0
  m_UsedByEffector: 0
  m_Offset: {x: 0, y: 0}
  m_Points:
  - {x: .499372959, y: .48789382}
  - {x: .49996233, y: -.498720497}
--- !u!68 &6827826
EdgeCollider2D:
  m_ObjectHideFlags: 1
  m_PrefabParentObject: {fileID: 0}
  m_PrefabInternal: {fileID: 100100000}
  m_GameObject: {fileID: 188254}
  m_Enabled: 1
  m_Material: {fileID: 6200000, guid: aaa78883fb506424ea26248d5da79514, type: 2}
  m_IsTrigger: 0
  m_UsedByEffector: 0
  m_Offset: {x: 0, y: 0}
  m_Points:
  - {x: -.499338627, y: .499719977}
  - {x: .499052525, y: .499395847}
--- !u!68 &6845132
EdgeCollider2D:
  m_ObjectHideFlags: 1
  m_PrefabParentObject: {fileID: 0}
  m_PrefabInternal: {fileID: 100100000}
  m_GameObject: {fileID: 188254}
  m_Enabled: 1
  m_Material: {fileID: 6200000, guid: aaa78883fb506424ea26248d5da79514, type: 2}
  m_IsTrigger: 0
  m_UsedByEffector: 0
  m_Offset: {x: 0, y: 0}
  m_Points:
  - {x: -.499789715, y: .490622044}
  - {x: -.49998188, y: -.497565866}
--- !u!68 &6889770
EdgeCollider2D:
  m_ObjectHideFlags: 1
  m_PrefabParentObject: {fileID: 0}
  m_PrefabInternal: {fileID: 100100000}
  m_GameObject: {fileID: 188254}
  m_Enabled: 1
  m_Material: {fileID: 6200000, guid: aaa78883fb506424ea26248d5da79514, type: 2}
  m_IsTrigger: 0
  m_UsedByEffector: 0
  m_Offset: {x: 0, y: 0}
  m_Points:
  - {x: -.5, y: -.500084817}
  - {x: .499315739, y: -.499652445}
--- !u!114 &11445954
MonoBehaviour:
  m_ObjectHideFlags: 1
  m_PrefabParentObject: {fileID: 0}
  m_PrefabInternal: {fileID: 100100000}
  m_GameObject: {fileID: 188254}
  m_Enabled: 1
  m_EditorHideFlags: 0
  m_Script: {fileID: 11500000, guid: e9bd21ef82de89d43a4741c9a3bfc94f, type: 3}
  m_Name: 
  m_EditorClassIdentifier: 
  TileOnStart: 1
  ApplyParentScale: 0
--- !u!212 &21288144
SpriteRenderer:
  m_ObjectHideFlags: 1
  m_PrefabParentObject: {fileID: 0}
  m_PrefabInternal: {fileID: 100100000}
  m_GameObject: {fileID: 188254}
  m_Enabled: 1
  m_CastShadows: 0
  m_ReceiveShadows: 0
  m_Materials:
  - {fileID: 10754, guid: 0000000000000000e000000000000000, type: 0}
  m_SubsetIndices: 
  m_StaticBatchRoot: {fileID: 0}
  m_UseLightProbes: 1
  m_ReflectionProbeUsage: 1
  m_ProbeAnchor: {fileID: 0}
  m_ScaleInLightmap: 1
  m_PreserveUVs: 0
  m_ImportantGI: 0
  m_AutoUVMaxDistance: .5
  m_AutoUVMaxAngle: 89
  m_LightmapParameters: {fileID: 0}
  m_SortingLayerID: -1308565521
  m_SortingOrder: 0
  m_Sprite: {fileID: 21300000, guid: ab844d777a55bae4199ddb5a641d9eea, type: 3}
  m_Color: {r: .786764741, g: .53717041, b: 0, a: 1}
--- !u!1001 &100100000
Prefab:
  m_ObjectHideFlags: 1
  serializedVersion: 2
  m_Modification:
    m_TransformParent: {fileID: 0}
    m_Modifications: []
    m_RemovedComponents: []
  m_ParentPrefab: {fileID: 0}
  m_RootGameObject: {fileID: 188254}
  m_IsPrefabParent: 1
