%YAML 1.1
%TAG !u! tag:unity3d.com,2011:
--- !u!78 &1
TagManager:
  serializedVersion: 2
  tags: []
  layers:
  - Default
  - TransparentFX
  - Ignore Raycast
  - 
  - Water
  - UI
  - 
  - 
  - Player
  - Floor
  - DeadlyObject
  - Checkpoint
  - MovableObject
  - PlayerPieces
  - 
  - 
  - 
  - 
  - 
  - 
  - 
  - 
  - 
  - 
  - 
  - 
  - 
  - 
  - 
  - 
  - 
  - 
  m_SortingLayers:
  - name: Default
    uniqueID: 0
    locked: 0
  - name: Background
    uniqueID: 1920950505
    locked: 0
  - name: Midground
    uniqueID: 98578301
    locked: 0
  - name: Checkpoint
    uniqueID: 4037005303
    locked: 0
  - name: PlayerPiece
    uniqueID: 4164391261
    locked: 0
  - name: Player
    uniqueID: 4241635973
    locked: 0
  - name: Effect
    uniqueID: 2926052829
    locked: 0
  - name: Obstacle
    uniqueID: 886958681
    locked: 0
  - name: Ground
    uniqueID: 2986401775
    locked: 0
  - name: HUD
    uniqueID: 1998576259
    locked: 0
